Multiple Simulations • pmforest
…
In this example, nsim is the “replicate” identifier, while stat is the “value”, GROUP is the “group” column, and LVL will be “group_level”. Notice in our example we have 50 replicates and 1,800 rows for each replicate.

count(rawData, nsim)
#> # A tibble: 50 × 2
#>     nsim     n
#>    <int> <int>
#>  1     1  1800
#>  2     2  1800
#>  3     3  1800
#>  4     4  1800
#>  5     5  1800
#>  6     6  1800
#>  7     7  1800
#>  8     8  1800
#>  9     9  1800
#> 10    10  1800
#> # … with 40 more rows
…
